{
    "extends": ["tslint:recommended"],
    "rules": {
        "member-access": [true, "no-public"],
        "member-ordering": [
            true,
            { "order": "instance-sandwich", "alphabetize": false }
        ],
        "no-any": false,
        "no-empty-interface": false,
        "no-for-in": true,
        "no-import-side-effect": true,
        "no-inferrable-types": [true, "ignore-params"],
        "no-internal-module": true,
        "no-magic-numbers": true,
        "no-namespace": true,
        "no-non-null-assertion": true,
        "no-reference": true,
        "no-restricted-globals": true,
        "no-this-assignment": true,
        "no-var-requires": true,
        "only-arrow-functions": [true, "allow-declarations"],
        "prefer-for-of": true,
        "prefer-readonly": true,
        "promise-function-async": true,
        "typedef": true,
        "typedef-whitespace": [
            true,
            {
                "call-signature": "nospace",
                "index-signature": "nospace",
                "parameter": "nospace",
                "property-declaration": "nospace",
                "variable-declaration": "nospace"
            },
            {
                "call-signature": "onespace",
                "index-signature": "onespace",
                "parameter": "onespace",
                "property-declaration": "onespace",
                "variable-declaration": "onespace"
            }
        ],
        "unified-signatures": true,
        "await-promise": true,
        "ban-comma-operator": true,
        "curly": [true, "ignore-same-line"],
        "forin": true,
        "function-constructor": true,
        "label-position": true,
        "no-arg": true,
        "no-async-without-await": true,
        "no-bitwise": true,
        "no-conditional-assignment": true,
        "no-console": true,
        "no-construct": true,
        "no-debugger": true,
        "no-duplicate-super": true,
        "no-duplicate-switch-case": true,
        "no-duplicate-variable": true,
        "no-dynamic-delete": true,
        "no-empty": true,
        "no-eval": true,
        "no-floating-promises": true,
        "no-for-in-array": true,
        "no-implicit-dependencies": true,
        "no-inferred-empty-object-type": true,
        "no-invalid-template-strings": true,
        "no-invalid-this": true,
        "no-misused-new": true,
        "no-null-keyword": true,
        "no-null-undefined-union": true,
        "no-object-literal-type-assertion": true,
        "no-promise-as-boolean": true,
        "no-return-await": true,
        "no-shadowed-variable": true,
        "no-string-literal": true,
        "no-string-throw": true,
        "no-sparse-arrays": true,
        "no-submodule-imports": [
            true,
            "rxjs",
            "@angular/platform-browser",
            "@angular/core/testing"
        ],
        "no-switch-case-fall-through": true,
        "no-tautology-expression": true,
        "no-unbound-method": true,
        "no-unnecessary-class": true,
        "no-unsafe-any": true,
        "no-unsafe-finally": true,
        "no-unused-expression": true,
        "no-var-keyword": true,
        "no-void-expression": [true, "ignore-arrow-function-shorthand"],
        "prefer-conditional-expression": true,
        "radix": true,
        "restrict-plus-operands": true,
        "static-this": true,
        "strict-boolean-expressions": true,
        "strict-string-expressions": true,
        "strict-comparisons": true,
        "strict-type-predicates": false,
        "switch-default": true,
        "triple-equals": [true, "allow-null-check", "allow-undefined-check"],
        "unnecessary-constructor": true,
        "use-default-type-parameter": true,
        "use-isnan": true,
        "cyclomatic-complexity": true,
        "eofline": true,
        "indent": { "options": ["spaces"] },
        "invalid-void": true,
        "linebreak-style": [true, "CRLF"],
        "max-classes-per-file": [true, 1],
        "max-file-line-count": false,
        "max-line-length": [true, 120],
        "no-default-export": true,
        "no-default-import": true,
        "no-duplicate-imports": true,
        "no-irregular-whitespace": true,
        "no-mergeable-namespace": true,
        "no-parameter-reassignment": false,
        "no-require-imports": true,
        "no-trailing-whitespace": true,
        "object-literal-sort-keys": true,
        "prefer-const": true,
        "trailing-comma": [
            true,
            {
                "esSpecCompliant": true,
                "multiline": {
                    "objects": "never",
                    "arrays": "always",
                    "functions": "never",
                    "typeLiterals": "ignore"
                },
                "singleline": "never"
            }
        ],
        "align": [
            true,
            "parameters",
            "arguments",
            "statements",
            "elements",
            "members"
        ],
        "array-type": [true, "array"],
        "arrow-parens": [true, "ban-single-arg-parens"],
        "arrow-return-shorthand": { "options": "multiline" },
        "binary-expression-operand-order": true,
        "callable-types": true,
        "class-name": true,
        "comment-format": [true, "check-space"],
        "comment-type": false,
        "completed-docs": [
            true,
            {
                "methods": {
                    "privacies": ["protected", "public"],
                    "locations": "all"
                },
                "properties": {
                    "privacies": ["protected", "public"],
                    "locations": "all"
                },
                "classes": { "visibilities": "exported" },
                "interfaces": { "visibilities": "exported" },
                "enums": { "visibilities": "exported" },
                "functions": { "visibilities": "exported" },
                "types": { "visibilities": "exported" },
                "variables": { "visibilities": "exported" }
            }
        ],
        "deprecation": true,
        "encoding": true,
        "file-name-casing": [true, "kebab-case"],
        "import-spacing": true,
        "increment-decrement": true,
        "interface-name": true,
        "interface-over-type-literal": true,
        "jsdoc-format": [true, "check-multiline-start"],
        "match-default-export-name": true,
        "new-parens": true,
        "newline-before-return": true,
        "newline-per-chained-call": true,
        "no-angle-bracket-type-assertion": false,
        "no-boolean-literal-compare": false,
        "no-consecutive-blank-lines": true,
        "no-parameter-properties": false,
        "no-redundant-jsdoc": true,
        "no-reference-import": true,
        "no-unnecessary-callback-wrapper": true,
        "no-unnecessary-initializer": true,
        "no-unnecessary-qualifier": true,
        "no-unnecessary-type-assertion": true,
        "number-literal-format": true,
        "object-literal-key-quotes": [true, "as-needed"],
        "object-literal-shorthand": true,
        "one-line": [
            true,
            [
                "check-catch",
                "check-else",
                "check-finally",
                "check-open-brace",
                "check-whitespace"
            ]
        ],
        "one-variable-per-declaration": true,
        "ordered-imports": [
            true,
            {
                "grouped-imports": true,
                "import-sources-order": "case-insensitive",
                "named-imports-order": "case-insensitive",
                "module-source-path": "full"
            }
        ],
        "prefer-function-over-method": [true, "allow-protected"],
        "prefer-method-signature": true,
        "prefer-object-spread": true,
        "prefer-switch": true,
        "prefer-template": true,
        "prefer-while": true,
        "quotemark": [true, "double"],
        "return-undefined": true,
        "semicolon": [true, "always"],
        "space-before-function-paren": [
            true,
            {
                "anonymous": "never",
                "asyncArrow": "always",
                "constructor": "never",
                "method": "never",
                "named": "never"
            }
        ],
        "space-within-parens": [true, 0],
        "switch-final-break": true,
        "type-literal-delimiter": true,
        "unnecessary-bind": true,
        "unnecessary-else": true,
        "variable-name": {
            "options": [
                "ban-keywords",
                "check-format",
                "require-const-for-all-caps",
                "allow-leading-underscore"
            ]
        },
        "whitespace": [
            true,
            "check-branch",
            "check-decl",
            "check-operator",
            "check-module",
            "check-separator",
            "check-type",
            "check-preblock",
            "check-type-operator",
            "check-rest-spread"
        ]
    }
}
